data/TEK0016.CSV

Record Length,2.500000e+03,,  -5.004000000000,   0.00340,
Sample Interval,4.000000e-03,,  -5.000000000000,   0.00340,
Trigger Point,1.251000000000e+03,,  -4.996000000000,   0.00380,
,,,  -4.992000000000,   0.00340,
,,,  -4.988000000000,   0.00340,
,,,  -4.984000000000,   0.00360,
Source,CH1,,  -4.980000000000,   0.00320,
Vertical Units,V,,  -4.976000000000,   0.00380,
Vertical Scale,5.000000e-03,,  -4.972000000000,   0.00360,
Vertical Offset,-1.000000e-02,,  -4.968000000000,   0.00300,
Horizontal Units,s,,  -4.964000000000,   0.00360,
Horizontal Scale,1.000000e+00,,  -4.960000000000,   0.00320,
Pt Fmt,Y,,  -4.956000000000,   0.00360,
Yzero,0.000000e+00,,  -4.952000000000,   0.00360,
Probe Atten,1.000000e+00,,  -4.948000000000,   0.00300,
Model Number,TDS1001B,,  -4.944000000000,   0.00340,
Serial Number,C102706,,  -4.940000000000,   0.00320,
Firmware Version,FV:v22.11,,  -4.936000000000,   0.00360,
,,,-04.932000000000,   0.00340,
,,,-04.928000000000,   0.00360,
,,,-04.924000000000,   0.00340,
,,,-04.920000000000,   0.00340,
,,,-04.916000000000,   0.00320,
,,,-04.912000000000,   0.00360,
,,,-04.908000000000,   0.00380,
,,,-04.904000000000,   0.00340,
,,,-04.900000000000,   0.00320,
,,,-04.896000000000,   0.00360,
,,,-04.892000000000,   0.00360,
,,,-04.888000000000,   0.00320,
,,,-04.884000000000,   0.00360,
,,,-04.880000000000,   0.00340,
,,,-04.876000000000,   0.00300,
,,,-04.872000000000,   0.00300,
,,,-04.868000000000,   0.00320,
,,,-04.864000000000,   0.00320,
,,,-04.860000000000,   0.00320,
,,,-04.856000000000,   0.00340,
,,,-04.852000000000,   0.00340,
,,,-04.848000000000,   0.00280,
,,,-04.844000000000,   0.00340,
,,,-04.840000000000,   0.00320,
,,,-04.836000000000,   0.00320,
,,,-04.832000000000,   0.00320,
,,,-04.828000000000,   0.00300,
,,,-04.824000000000,   0.00320,
,,,-04.820000000000,   0.00340,
,,,-04.816000000000,   0.00340,
,,,-04.812000000000,   0.00340,
,,,-04.808000000000,   0.00360,
,,,-04.804000000000,   0.00320,
,,,-04.800000000000,   0.00300,
,,,-04.796000000000,   0.00340,
,,,-04.792000000000,   0.00300,
,,,-04.788000000000,   0.00320,
,,,-04.784000000000,   0.00340,
,,,-04.780000000000,   0.00320,
,,,-04.776000000000,   0.00280,
,,,-04.772000000000,   0.00360,
,,,-04.768000000000,   0.00300,
,,,-04.764000000000,   0.00320,
,,,-04.760000000000,   0.00300,
,,,-04.756000000000,   0.00320,
,,,-04.752000000000,   0.00340,
,,,-04.748000000000,   0.00300,
,,,-04.744000000000,   0.00320,
,,,-04.740000000000,   0.00320,
,,,-04.736000000000,   0.00380,
,,,-04.732000000000,   0.00320,
,,,-04.728000000000,   0.00360,
,,,-04.724000000000,   0.00320,
,,,-04.720000000000,   0.00340,
,,,-04.716000000000,   0.00340,
,,,-04.712000000000,   0.00300,
,,,-04.708000000000,   0.00320,
,,,-04.704000000000,   0.00320,
,,,-04.700000000000,   0.00320,
,,,-04.696000000000,   0.00320,
,,,-04.692000000000,   0.00300,
,,,-04.688000000000,   0.00340,
,,,-04.684000000000,   0.00320,
,,,-04.680000000000,   0.00300,
,,,-04.676000000000,   0.00320,
,,,-04.672000000000,   0.00320,
,,,-04.668000000000,   0.00320,
,,,-04.664000000000,   0.00280,
,,,-04.660000000000,   0.00300,
,,,-04.656000000000,   0.00320,
,,,-04.652000000000,   0.00340,
,,,-04.648000000000,   0.00320,
,,,-04.644000000000,   0.00320,
,,,-04.640000000000,   0.00320,
,,,-04.636000000000,   0.00320,
,,,-04.632000000000,   0.00380,
,,,-04.628000000000,   0.00320,
,,,-04.624000000000,   0.00300,
,,,-04.620000000000,   0.00320,
,,,-04.616000000000,   0.00320,
,,,-04.612000000000,   0.00340,
,,,-04.608000000000,   0.00300,
,,,-04.604000000000,   0.00360,
,,,-04.600000000000,   0.00300,
,,,-04.596000000000,   0.00320,
,,,-04.592000000000,   0.00360,
,,,-04.588000000000,   0.00300,
,,,-04.584000000000,   0.00320,
,,,-04.580000000000,   0.00320,
,,,-04.576000000000,   0.00320,
,,,-04.572000000000,   0.00340,
,,,-04.568000000000,   0.00320,
,,,-04.564000000000,   0.00320,
,,,-04.560000000000,   0.00280,
,,,-04.556000000000,   0.00300,
,,,-04.552000000000,   0.00280,
,,,-04.548000000000,   0.00280,
,,,-04.544000000000,   0.00300,
,,,-04.540000000000,   0.00300,
,,,-04.536000000000,   0.00340,
,,,-04.532000000000,   0.00320,
,,,-04.528000000000,   0.00320,
,,,-04.524000000000,   0.00320,
,,,-04.520000000000,   0.00320,
,,,-04.516000000000,   0.00280,
,,,-04.512000000000,   0.00300,
,,,-04.508000000000,   0.00280,
,,,-04.504000000000,   0.00280,
,,,-04.500000000000,   0.00300,
,,,-04.496000000000,   0.00340,
,,,-04.492000000000,   0.00280,
,,,-04.488000000000,   0.00280,
,,,-04.484000000000,   0.00320,
,,,-04.480000000000,   0.00300,
,,,-04.476000000000,   0.00300,
,,,-04.472000000000,   0.00360,
,,,-04.468000000000,   0.00300,
,,,-04.464000000000,   0.00300,
,,,-04.460000000000,   0.00320,
,,,-04.456000000000,   0.00320,
,,,-04.452000000000,   0.00300,
,,,-04.448000000000,   0.00320,
,,,-04.444000000000,   0.00320,
,,,-04.440000000000,   0.00320,
,,,-04.436000000000,   0.00320,
,,,-04.432000000000,   0.00340,
,,,-04.428000000000,   0.00340,
,,,-04.424000000000,   0.00320,
,,,-04.420000000000,   0.00300,
,,,-04.416000000000,   0.00340,
,,,-04.412000000000,   0.00340,
,,,-04.408000000000,   0.00320,
,,,-04.404000000000,   0.00300,
,,,-04.400000000000,   0.00320,
,,,-04.396000000000,   0.00300,
,,,-04.392000000000,   0.00320,
,,,-04.388000000000,   0.00340,
,,,-04.384000000000,   0.00300,
,,,-04.380000000000,   0.00300,
,,,-04.376000000000,   0.00320,
,,,-04.372000000000,   0.00260,
,,,-04.368000000000,   0.00340,
,,,-04.364000000000,   0.00340,
,,,-04.360000000000,   0.00280,
,,,-04.356000000000,   0.00320,
,,,-04.352000000000,   0.00320,
,,,-04.348000000000,   0.00300,
,,,-04.344000000000,   0.00280,
,,,-04.340000000000,   0.00280,
,,,-04.336000000000,   0.00320,
,,,-04.332000000000,   0.00300,
,,,-04.328000000000,   0.00300,
,,,-04.324000000000,   0.00300,
,,,-04.320000000000,   0.00280,
,,,-04.316000000000,   0.00300,
,,,-04.312000000000,   0.00280,
,,,-04.308000000000,   0.00280,
,,,-04.304000000000,   0.00320,
,,,-04.300000000000,   0.00300,
,,,-04.296000000000,   0.00320,
,,,-04.292000000000,   0.00320,
,,,-04.288000000000,   0.00280,
,,,-04.284000000000,   0.00300,
,,,-04.280000000000,   0.00300,
,,,-04.276000000000,   0.00320,
,,,-04.272000000000,   0.00340,
,,,-04.268000000000,   0.00300,
,,,-04.264000000000,   0.00340,
,,,-04.260000000000,   0.00320,
,,,-04.256000000000,   0.00320,
,,,-04.252000000000,   0.00320,
,,,-04.248000000000,   0.00320,
,,,-04.244000000000,   0.00300,
,,,-04.240000000000,   0.00300,
,,,-04.236000000000,   0.00320,
,,,-04.232000000000,   0.00280,
,,,-04.228000000000,   0.00340,
,,,-04.224000000000,   0.00300,
,,,-04.220000000000,   0.00280,
,,,-04.216000000000,   0.00300,
,,,-04.212000000000,   0.00300,
,,,-04.208000000000,   0.00300,
,,,-04.204000000000,   0.00300,
,,,-04.200000000000,   0.00320,
,,,-04.196000000000,   0.00340,
,,,-04.192000000000,   0.00300,
,,,-04.188000000000,   0.00300,
,,,-04.184000000000,   0.00280,
,,,-04.180000000000,   0.00280,
,,,-04.176000000000,   0.00340,
,,,-04.172000000000,   0.00340,
,,,-04.168000000000,   0.00340,
,,,-04.164000000000,   0.00280,
,,,-04.160000000000,   0.00280,
,,,-04.156000000000,   0.00300,
,,,-04.152000000000,   0.00280,
,,,-04.148000000000,   0.00300,
,,,-04.144000000000,   0.00280,
,,,-04.140000000000,   0.00260,
,,,-04.136000000000,   0.00320,
,,,-04.132000000000,   0.00300,
,,,-04.128000000000,   0.00280,
,,,-04.124000000000,   0.00300,
,,,-04.120000000000,   0.00320,
,,,-04.116000000000,   0.00300,
,,,-04.112000000000,   0.00320,
,,,-04.108000000000,   0.00280,
,,,-04.104000000000,   0.00340,
,,,-04.100000000000,   0.00320,
,,,-04.096000000000,   0.00280,
,,,-04.092000000000,   0.00280,
,,,-04.088000000000,   0.00280,
,,,-04.084000000000,   0.00280,
,,,-04.080000000000,   0.00260,
,,,-04.076000000000,   0.00260,
,,,-04.072000000000,   0.00300,
,,,-04.068000000000,   0.00280,
,,,-04.064000000000,   0.00260,
,,,-04.060000000000,   0.00280,
,,,-04.056000000000,   0.00300,
,,,-04.052000000000,   0.00320,
,,,-04.048000000000,   0.00280,
,,,-04.044000000000,   0.00280,
,,,-04.040000000000,   0.00260,
,,,-04.036000000000,   0.00320,
,,,-04.032000000000,   0.00300,
,,,-04.028000000000,   0.00300,
,,,-04.024000000000,   0.00260,
,,,-04.020000000000,   0.00280,
,,,-04.016000000000,   0.00300,
,,,-04.012000000000,   0.00300,
,,,-04.008000000000,   0.00320,
,,,-04.004000000000,   0.00340,
,,,-04.000000000000,   0.00280,
,,,-03.996000000000,   0.00280,
,,,-03.992000000000,   0.00280,
,,,-03.988000000000,   0.00300,
,,,-03.984000000000,   0.00280,
,,,-03.980000000000,   0.00280,
,,,-03.976000000000,   0.00280,
,,,-03.972000000000,   0.00280,
,,,-03.968000000000,   0.00320,
,,,-03.964000000000,   0.00280,
,,,-03.960000000000,   0.00300,
,,,-03.956000000000,   0.00340,
,,,-03.952000000000,   0.00320,
,,,-03.948000000000,   0.00320,
,,,-03.944000000000,   0.00300,
,,,-03.940000000000,   0.00300,
,,,-03.936000000000,   0.00300,
,,,-03.932000000000,   0.00320,
,,,-03.928000000000,   0.00300,
,,,-03.924000000000,   0.00300,
,,,-03.920000000000,   0.00280,
,,,-03.916000000000,   0.00340,
,,,-03.912000000000,   0.00340,
,,,-03.908000000000,   0.00320,
,,,-03.904000000000,   0.00340,
,,,-03.900000000000,   0.00260,
,,,-03.896000000000,   0.00280,
,,,-03.892000000000,   0.00300,
,,,-03.888000000000,   0.00320,
,,,-03.884000000000,   0.00280,
,,,-03.880000000000,   0.00280,
,,,-03.876000000000,   0.00340,
,,,-03.872000000000,   0.00280,
,,,-03.868000000000,   0.00300,
,,,-03.864000000000,   0.00320,
,,,-03.860000000000,   0.00300,
,,,-03.856000000000,   0.00300,
,,,-03.852000000000,   0.00280,
,,,-03.848000000000,   0.00300,
,,,-03.844000000000,   0.00280,
,,,-03.840000000000,   0.00280,
,,,-03.836000000000,   0.00280,
,,,-03.832000000000,   0.00320,
,,,-03.828000000000,   0.00260,
,,,-03.824000000000,   0.00280,
,,,-03.820000000000,   0.00260,
,,,-03.816000000000,   0.00320,
,,,-03.812000000000,   0.00300,
,,,-03.808000000000,   0.00300,
,,,-03.804000000000,   0.00260,
,,,-03.800000000000,   0.00300,
,,,-03.796000000000,   0.00280,
,,,-03.792000000000,   0.00300,
,,,-03.788000000000,   0.00300,
,,,-03.784000000000,   0.00280,
,,,-03.780000000000,   0.00280,
,,,-03.776000000000,   0.00300,
,,,-03.772000000000,   0.00280,
,,,-03.768000000000,   0.00260,
,,,-03.764000000000,   0.00280,
,,,-03.760000000000,   0.00260,
,,,-03.756000000000,   0.00320,
,,,-03.752000000000,   0.00280,
,,,-03.748000000000,   0.00320,
,,,-03.744000000000,   0.00300,
,,,-03.740000000000,   0.00300,
,,,-03.736000000000,   0.00300,
,,,-03.732000000000,   0.00280,
,,,-03.728000000000,   0.00300,
,,,-03.724000000000,   0.00320,
,,,-03.720000000000,   0.00280,
,,,-03.716000000000,   0.00340,
,,,-03.712000000000,   0.00320,
,,,-03.708000000000,   0.00340,
,,,-03.704000000000,   0.00260,
,,,-03.700000000000,   0.00260,
,,,-03.696000000000,   0.00300,
,,,-03.692000000000,   0.00300,
,,,-03.688000000000,   0.00260,
,,,-03.684000000000,   0.00320,
,,,-03.680000000000,   0.00280,
,,,-03.676000000000,   0.00260,
,,,-03.672000000000,   0.00320,
,,,-03.668000000000,   0.00300,
,,,-03.664000000000,   0.00260,
,,,-03.660000000000,   0.00300,
,,,-03.656000000000,   0.00280,
,,,-03.652000000000,   0.00320,
,,,-03.648000000000,   0.00280,
,,,-03.644000000000,   0.00300,
,,,-03.640000000000,   0.00300,
,,,-03.636000000000,   0.00320,
,,,-03.632000000000,   0.00300,
,,,-03.628000000000,   0.00340,
,,,-03.624000000000,   0.00300,
,,,-03.620000000000,   0.00320,
,,,-03.616000000000,   0.00320,
,,,-03.612000000000,   0.00320,
,,,-03.608000000000,   0.00360,
,,,-03.604000000000,   0.00300,
,,,-03.600000000000,   0.00320,
,,,-03.596000000000,   0.00300,
,,,-03.592000000000,   0.00360,
,,,-03.588000000000,   0.00340,
,,,-03.584000000000,   0.00320,
,,,-03.580000000000,   0.00280,
,,,-03.576000000000,   0.00320,
,,,-03.572000000000,   0.00340,
,,,-03.568000000000,   0.00360,
,,,-03.564000000000,   0.00300,
,,,-03.560000000000,   0.00300,
,,,-03.556000000000,   0.00340,
,,,-03.552000000000,   0.00340,
,,,-03.548000000000,   0.00280,
,,,-03.544000000000,   0.00320,
,,,-03.540000000000,   0.00300,
,,,-03.536000000000,   0.00320,
,,,-03.532000000000,   0.00340,
,,,-03.528000000000,   0.00300,
,,,-03.524000000000,   0.00320,
,,,-03.520000000000,   0.00320,
,,,-03.516000000000,   0.00340,
,,,-03.512000000000,   0.00340,
,,,-03.508000000000,   0.00300,
,,,-03.504000000000,   0.00320,
,,,-03.500000000000,   0.00300,
,,,-03.496000000000,   0.00320,
,,,-03.492000000000,   0.00320,
,,,-03.488000000000,   0.00320,
,,,-03.484000000000,   0.00280,
,,,-03.480000000000,   0.00300,
,,,-03.476000000000,   0.00300,
,,,-03.472000000000,   0.00340,
,,,-03.468000000000,   0.00340,
,,,-03.464000000000,   0.00300,
,,,-03.460000000000,   0.00300,
,,,-03.456000000000,   0.00340,
,,,-03.452000000000,   0.00300,
,,,-03.448000000000,   0.00320,
,,,-03.444000000000,   0.00340,
,,,-03.440000000000,   0.00300,
,,,-03.436000000000,   0.00320,
,,,-03.432000000000,   0.00340,
,,,-03.428000000000,   0.00300,
,,,-03.424000000000,   0.00300,
,,,-03.420000000000,   0.00320,
,,,-03.416000000000,   0.00300,
,,,-03.412000000000,   0.00320,
,,,-03.408000000000,   0.00320,
,,,-03.404000000000,   0.00320,
,,,-03.400000000000,   0.00360,
,,,-03.396000000000,   0.00320,
,,,-03.392000000000,   0.00320,
,,,-03.388000000000,   0.00300,
,,,-03.384000000000,   0.00340,
,,,-03.380000000000,   0.00320,
,,,-03.376000000000,   0.00320,
,,,-03.372000000000,   0.00320,
,,,-03.368000000000,   0.00300,
,,,-03.364000000000,   0.00340,
,,,-03.360000000000,   0.00340,
,,,-03.356000000000,   0.00340,
,,,-03.352000000000,   0.00300,
,,,-03.348000000000,   0.00320,
,,,-03.344000000000,   0.00280,
,,,-03.340000000000,   0.00320,
,,,-03.336000000000,   0.00340,
,,,-03.332000000000,   0.00340,
,,,-03.328000000000,   0.00320,
,,,-03.324000000000,   0.00340,
,,,-03.320000000000,   0.00300,
,,,-03.316000000000,   0.00380,
,,,-03.312000000000,   0.00340,
,,,-03.308000000000,   0.00320,
,,,-03.304000000000,   0.00320,
,,,-03.300000000000,   0.00320,
,,,-03.296000000000,   0.00340,
,,,-03.292000000000,   0.00380,
,,,-03.288000000000,   0.00320,
,,,-03.284000000000,   0.00340,
,,,-03.280000000000,   0.00320,
,,,-03.276000000000,   0.00360,
,,,-03.272000000000,   0.00360,
,,,-03.268000000000,   0.00340,
,,,-03.264000000000,   0.00340,
,,,-03.260000000000,   0.00320,
,,,-03.256000000000,   0.00340,
,,,-03.252000000000,   0.00340,
,,,-03.248000000000,   0.00340,
,,,-03.244000000000,   0.00340,
,,,-03.240000000000,   0.00340,
,,,-03.236000000000,   0.00320,
,,,-03.232000000000,   0.00340,
,,,-03.228000000000,   0.00340,
,,,-03.224000000000,   0.00360,
,,,-03.220000000000,   0.00360,
,,,-03.216000000000,   0.00340,
,,,-03.212000000000,   0.00380,
,,,-03.208000000000,   0.00340,
,,,-03.204000000000,   0.00340,
,,,-03.200000000000,   0.00320,
,,,-03.196000000000,   0.00400,
,,,-03.192000000000,   0.00340,
,,,-03.188000000000,   0.00300,
,,,-03.184000000000,   0.00320,
,,,-03.180000000000,   0.00320,
,,,-03.176000000000,   0.00320,
,,,-03.172000000000,   0.00360,
,,,-03.168000000000,   0.00320,
,,,-03.164000000000,   0.00320,
,,,-03.160000000000,   0.00360,
,,,-03.156000000000,   0.00340,
,,,-03.152000000000,   0.00360,
,,,-03.148000000000,   0.00320,
,,,-03.144000000000,   0.00340,
,,,-03.140000000000,   0.00320,
,,,-03.136000000000,   0.00400,
,,,-03.132000000000,   0.00360,
,,,-03.128000000000,   0.00360,
,,,-03.124000000000,   0.00320,
,,,-03.120000000000,   0.00340,
,,,-03.116000000000,   0.00340,
,,,-03.112000000000,   0.00320,
,,,-03.108000000000,   0.00320,
,,,-03.104000000000,   0.00360,
,,,-03.100000000000,   0.00320,
,,,-03.096000000000,   0.00340,
,,,-03.092000000000,   0.00340,
,,,-03.088000000000,   0.00360,
,,,-03.084000000000,   0.00360,
,,,-03.080000000000,   0.00300,
,,,-03.076000000000,   0.00340,
,,,-03.072000000000,   0.00340,
,,,-03.068000000000,   0.00360,
,,,-03.064000000000,   0.00340,
,,,-03.060000000000,   0.00320,
,,,-03.056000000000,   0.00360,
,,,-03.052000000000,   0.00400,
,,,-03.048000000000,   0.00360,
,,,-03.044000000000,   0.00340,
,,,-03.040000000000,   0.00340,
,,,-03.036000000000,   0.00360,
,,,-03.032000000000,   0.00340,
,,,-03.028000000000,   0.00340,
,,,-03.024000000000,   0.00340,
,,,-03.020000000000,   0.00340,
,,,-03.016000000000,   0.00340,
,,,-03.012000000000,   0.00320,
,,,-03.008000000000,   0.00380,
,,,-03.004000000000,   0.00360,
,,,-03.000000000000,   0.00340,
,,,-02.996000000000,   0.00380,
,,,-02.992000000000,   0.00340,
,,,-02.988000000000,   0.00340,
,,,-02.984000000000,   0.00340,
,,,-02.980000000000,   0.00360,
,,,-02.976000000000,   0.00340,
,,,-02.972000000000,   0.00320,
,,,-02.968000000000,   0.00320,
,,,-02.964000000000,   0.00360,
,,,-02.960000000000,   0.00340,
,,,-02.956000000000,   0.00340,
,,,-02.952000000000,   0.00360,
,,,-02.948000000000,   0.00320,
,,,-02.944000000000,   0.00320,
,,,-02.940000000000,   0.00360,
,,,-02.936000000000,   0.00380,
,,,-02.932000000000,   0.00340,
,,,-02.928000000000,   0.00360,
,,,-02.924000000000,   0.00340,
,,,-02.920000000000,   0.00320,
,,,-02.916000000000,   0.00340,
,,,-02.912000000000,   0.00360,
,,,-02.908000000000,   0.00320,
,,,-02.904000000000,   0.00320,
,,,-02.900000000000,   0.00300,
,,,-02.896000000000,   0.00320,
,,,-02.892000000000,   0.00340,
,,,-02.888000000000,   0.00320,
,,,-02.884000000000,   0.00360,
,,,-02.880000000000,   0.00320,
,,,-02.876000000000,   0.00360,
,,,-02.872000000000,   0.00320,
,,,-02.868000000000,   0.00320,
,,,-02.864000000000,   0.00320,
,,,-02.860000000000,   0.00320,
,,,-02.856000000000,   0.00380,
,,,-02.852000000000,   0.00360,
,,,-02.848000000000,   0.00340,
,,,-02.844000000000,   0.00360,
,,,-02.840000000000,   0.00340,
,,,-02.836000000000,   0.00320,
,,,-02.832000000000,   0.00340,
,,,-02.828000000000,   0.00340,
,,,-02.824000000000,   0.00340,
,,,-02.820000000000,   0.00320,
,,,-02.816000000000,   0.00360,
,,,-02.812000000000,   0.00340,
,,,-02.808000000000,   0.00300,
,,,-02.804000000000,   0.00300,
,,,-02.800000000000,   0.00320,
,,,-02.796000000000,   0.00380,
,,,-02.792000000000,   0.00340,
,,,-02.788000000000,   0.00360,
,,,-02.784000000000,   0.00340,
,,,-02.780000000000,   0.00340,
,,,-02.776000000000,   0.00360,
,,,-02.772000000000,   0.00360,
,,,-02.768000000000,   0.00360,
,,,-02.764000000000,   0.00320,
,,,-02.760000000000,   0.00340,
,,,-02.756000000000,   0.00360,
,,,-02.752000000000,   0.00360,
,,,-02.748000000000,   0.00360,
,,,-02.744000000000,   0.00340,
,,,-02.740000000000,   0.00380,
,,,-02.736000000000,   0.00340,
,,,-02.732000000000,   0.00380,
,,,-02.728000000000,   0.00380,
,,,-02.724000000000,   0.00360,
,,,-02.720000000000,   0.00360,
,,,-02.716000000000,   0.00380,
,,,-02.712000000000,   0.00380,
,,,-02.708000000000,   0.00400,
,,,-02.704000000000,   0.00360,
,,,-02.700000000000,   0.00360,
,,,-02.696000000000,   0.00400,
,,,-02.692000000000,   0.00360,
,,,-02.688000000000,   0.00340,
,,,-02.684000000000,   0.00400,
,,,-02.680000000000,   0.00360,
,,,-02.676000000000,   0.00420,
,,,-02.672000000000,   0.00340,
,,,-02.668000000000,   0.00360,
,,,-02.664000000000,   0.00320,
,,,-02.660000000000,   0.00380,
,,,-02.656000000000,   0.00380,
,,,-02.652000000000,   0.00360,
,,,-02.648000000000,   0.00340,
,,,-02.644000000000,   0.00380,
,,,-02.640000000000,   0.00400,
,,,-02.636000000000,   0.00400,
,,,-02.632000000000,   0.00400,
,,,-02.628000000000,   0.00380,
,,,-02.624000000000,   0.00360,
,,,-02.620000000000,   0.00360,
,,,-02.616000000000,   0.00360,
,,,-02.612000000000,   0.00380,
,,,-02.608000000000,   0.00380,
,,,-02.604000000000,   0.00360,
,,,-02.600000000000,   0.00360,
,,,-02.596000000000,   0.00380,
,,,-02.592000000000,   0.00360,
,,,-02.588000000000,   0.00380,
,,,-02.584000000000,   0.00380,
,,,-02.580000000000,   0.00400,
,,,-02.576000000000,   0.00400,
,,,-02.572000000000,   0.00380,
,,,-02.568000000000,   0.00380,
,,,-02.564000000000,   0.00360,
,,,-02.560000000000,   0.00360,
,,,-02.556000000000,   0.00360,
,,,-02.552000000000,   0.00360,
