data/TEK0015.CSV

Record Length,2.500000e+03,,  -5.004000000000,   0.00900,
Sample Interval,4.000000e-03,,  -5.000000000000,   0.00860,
Trigger Point,1.251000000000e+03,,  -4.996000000000,   0.00820,
,,,  -4.992000000000,   0.00840,
,,,  -4.988000000000,   0.00900,
,,,  -4.984000000000,   0.00860,
Source,CH1,,  -4.980000000000,   0.00880,
Vertical Units,V,,  -4.976000000000,   0.00880,
Vertical Scale,5.000000e-03,,  -4.972000000000,   0.00860,
Vertical Offset,-1.000000e-02,,  -4.968000000000,   0.00840,
Horizontal Units,s,,  -4.964000000000,   0.00880,
Horizontal Scale,1.000000e+00,,  -4.960000000000,   0.00920,
Pt Fmt,Y,,  -4.956000000000,   0.00820,
Yzero,0.000000e+00,,  -4.952000000000,   0.00880,
Probe Atten,1.000000e+00,,  -4.948000000000,   0.00900,
Model Number,TDS1001B,,  -4.944000000000,   0.00840,
Serial Number,C102706,,  -4.940000000000,   0.00840,
Firmware Version,FV:v22.11,,  -4.936000000000,   0.00860,
,,,-04.932000000000,   0.00840,
,,,-04.928000000000,   0.00840,
,,,-04.924000000000,   0.00820,
,,,-04.920000000000,   0.00800,
,,,-04.916000000000,   0.00820,
,,,-04.912000000000,   0.00800,
,,,-04.908000000000,   0.00840,
,,,-04.904000000000,   0.00800,
,,,-04.900000000000,   0.00840,
,,,-04.896000000000,   0.00840,
,,,-04.892000000000,   0.00840,
,,,-04.888000000000,   0.00840,
,,,-04.884000000000,   0.00860,
,,,-04.880000000000,   0.00880,
,,,-04.876000000000,   0.00820,
,,,-04.872000000000,   0.00820,
,,,-04.868000000000,   0.00860,
,,,-04.864000000000,   0.00840,
,,,-04.860000000000,   0.00840,
,,,-04.856000000000,   0.00860,
,,,-04.852000000000,   0.00820,
,,,-04.848000000000,   0.00860,
,,,-04.844000000000,   0.00820,
,,,-04.840000000000,   0.00860,
,,,-04.836000000000,   0.00820,
,,,-04.832000000000,   0.00840,
,,,-04.828000000000,   0.00860,
,,,-04.824000000000,   0.00840,
,,,-04.820000000000,   0.00840,
,,,-04.816000000000,   0.00840,
,,,-04.812000000000,   0.00820,
,,,-04.808000000000,   0.00820,
,,,-04.804000000000,   0.00820,
,,,-04.800000000000,   0.00860,
,,,-04.796000000000,   0.00840,
,,,-04.792000000000,   0.00820,
,,,-04.788000000000,   0.00860,
,,,-04.784000000000,   0.00860,
,,,-04.780000000000,   0.00840,
,,,-04.776000000000,   0.00880,
,,,-04.772000000000,   0.00880,
,,,-04.768000000000,   0.00860,
,,,-04.764000000000,   0.00840,
,,,-04.760000000000,   0.00820,
,,,-04.756000000000,   0.00840,
,,,-04.752000000000,   0.00820,
,,,-04.748000000000,   0.00820,
,,,-04.744000000000,   0.00860,
,,,-04.740000000000,   0.00800,
,,,-04.736000000000,   0.00820,
,,,-04.732000000000,   0.00820,
,,,-04.728000000000,   0.00800,
,,,-04.724000000000,   0.00860,
,,,-04.720000000000,   0.00840,
,,,-04.716000000000,   0.00840,
,,,-04.712000000000,   0.00840,
,,,-04.708000000000,   0.00800,
,,,-04.704000000000,   0.00820,
,,,-04.700000000000,   0.00840,
,,,-04.696000000000,   0.00860,
,,,-04.692000000000,   0.00820,
,,,-04.688000000000,   0.00820,
,,,-04.684000000000,   0.00840,
,,,-04.680000000000,   0.00820,
,,,-04.676000000000,   0.00820,
,,,-04.672000000000,   0.00840,
,,,-04.668000000000,   0.00840,
,,,-04.664000000000,   0.00840,
,,,-04.660000000000,   0.00820,
,,,-04.656000000000,   0.00820,
,,,-04.652000000000,   0.00800,
,,,-04.648000000000,   0.00840,
,,,-04.644000000000,   0.00860,
,,,-04.640000000000,   0.00840,
,,,-04.636000000000,   0.00820,
,,,-04.632000000000,   0.00800,
,,,-04.628000000000,   0.00780,
,,,-04.624000000000,   0.00800,
,,,-04.620000000000,   0.00820,
,,,-04.616000000000,   0.00800,
,,,-04.612000000000,   0.00800,
,,,-04.608000000000,   0.00840,
,,,-04.604000000000,   0.00840,
,,,-04.600000000000,   0.00820,
,,,-04.596000000000,   0.00820,
,,,-04.592000000000,   0.00820,
,,,-04.588000000000,   0.00820,
,,,-04.584000000000,   0.00840,
,,,-04.580000000000,   0.00780,
,,,-04.576000000000,   0.00840,
,,,-04.572000000000,   0.00860,
,,,-04.568000000000,   0.00820,
,,,-04.564000000000,   0.00820,
,,,-04.560000000000,   0.00860,
,,,-04.556000000000,   0.00820,
,,,-04.552000000000,   0.00820,
,,,-04.548000000000,   0.00820,
,,,-04.544000000000,   0.00800,
,,,-04.540000000000,   0.00800,
,,,-04.536000000000,   0.00800,
,,,-04.532000000000,   0.00820,
,,,-04.528000000000,   0.00800,
,,,-04.524000000000,   0.00840,
,,,-04.520000000000,   0.00820,
,,,-04.516000000000,   0.00800,
,,,-04.512000000000,   0.00820,
,,,-04.508000000000,   0.00780,
,,,-04.504000000000,   0.00820,
,,,-04.500000000000,   0.00800,
,,,-04.496000000000,   0.00820,
,,,-04.492000000000,   0.00840,
,,,-04.488000000000,   0.00820,
,,,-04.484000000000,   0.00860,
,,,-04.480000000000,   0.00820,
,,,-04.476000000000,   0.00800,
,,,-04.472000000000,   0.00840,
,,,-04.468000000000,   0.00820,
,,,-04.464000000000,   0.00780,
,,,-04.460000000000,   0.00820,
,,,-04.456000000000,   0.00800,
,,,-04.452000000000,   0.00820,
,,,-04.448000000000,   0.00820,
,,,-04.444000000000,   0.00820,
,,,-04.440000000000,   0.00800,
,,,-04.436000000000,   0.00840,
,,,-04.432000000000,   0.00800,
,,,-04.428000000000,   0.00840,
,,,-04.424000000000,   0.00820,
,,,-04.420000000000,   0.00800,
,,,-04.416000000000,   0.00840,
,,,-04.412000000000,   0.00800,
,,,-04.408000000000,   0.00780,
,,,-04.404000000000,   0.00820,
,,,-04.400000000000,   0.00840,
,,,-04.396000000000,   0.00800,
,,,-04.392000000000,   0.00780,
,,,-04.388000000000,   0.00780,
,,,-04.384000000000,   0.00860,
,,,-04.380000000000,   0.00820,
,,,-04.376000000000,   0.00840,
,,,-04.372000000000,   0.00780,
,,,-04.368000000000,   0.00840,
,,,-04.364000000000,   0.00860,
,,,-04.360000000000,   0.00820,
,,,-04.356000000000,   0.00820,
,,,-04.352000000000,   0.00840,
,,,-04.348000000000,   0.00820,
,,,-04.344000000000,   0.00840,
,,,-04.340000000000,   0.00840,
,,,-04.336000000000,   0.00860,
,,,-04.332000000000,   0.00820,
,,,-04.328000000000,   0.00840,
,,,-04.324000000000,   0.00780,
,,,-04.320000000000,   0.00800,
,,,-04.316000000000,   0.00820,
,,,-04.312000000000,   0.00820,
,,,-04.308000000000,   0.00800,
,,,-04.304000000000,   0.00840,
,,,-04.300000000000,   0.00840,
,,,-04.296000000000,   0.00860,
,,,-04.292000000000,   0.00840,
,,,-04.288000000000,   0.00840,
,,,-04.284000000000,   0.00820,
,,,-04.280000000000,   0.00840,
,,,-04.276000000000,   0.00820,
,,,-04.272000000000,   0.00840,
,,,-04.268000000000,   0.00840,
,,,-04.264000000000,   0.00860,
,,,-04.260000000000,   0.00860,
,,,-04.256000000000,   0.00840,
,,,-04.252000000000,   0.00840,
,,,-04.248000000000,   0.00800,
,,,-04.244000000000,   0.00840,
,,,-04.240000000000,   0.00840,
,,,-04.236000000000,   0.00840,
,,,-04.232000000000,   0.00860,
,,,-04.228000000000,   0.00820,
,,,-04.224000000000,   0.00880,
,,,-04.220000000000,   0.00840,
,,,-04.216000000000,   0.00840,
,,,-04.212000000000,   0.00860,
,,,-04.208000000000,   0.00820,
,,,-04.204000000000,   0.00820,
,,,-04.200000000000,   0.00800,
,,,-04.196000000000,   0.00800,
,,,-04.192000000000,   0.00780,
,,,-04.188000000000,   0.00840,
,,,-04.184000000000,   0.00780,
,,,-04.180000000000,   0.00780,
,,,-04.176000000000,   0.00840,
,,,-04.172000000000,   0.00840,
,,,-04.168000000000,   0.00840,
,,,-04.164000000000,   0.00860,
,,,-04.160000000000,   0.00800,
,,,-04.156000000000,   0.00800,
,,,-04.152000000000,   0.00840,
,,,-04.148000000000,   0.00840,
,,,-04.144000000000,   0.00800,
,,,-04.140000000000,   0.00860,
,,,-04.136000000000,   0.00820,
,,,-04.132000000000,   0.00820,
,,,-04.128000000000,   0.00800,
,,,-04.124000000000,   0.00820,
,,,-04.120000000000,   0.00820,
,,,-04.116000000000,   0.00840,
,,,-04.112000000000,   0.00860,
,,,-04.108000000000,   0.00820,
,,,-04.104000000000,   0.00820,
,,,-04.100000000000,   0.00820,
,,,-04.096000000000,   0.00800,
,,,-04.092000000000,   0.00800,
,,,-04.088000000000,   0.00840,
,,,-04.084000000000,   0.00860,
,,,-04.080000000000,   0.00820,
,,,-04.076000000000,   0.00820,
,,,-04.072000000000,   0.00780,
,,,-04.068000000000,   0.00820,
,,,-04.064000000000,   0.00840,
,,,-04.060000000000,   0.00840,
,,,-04.056000000000,   0.00840,
,,,-04.052000000000,   0.00860,
,,,-04.048000000000,   0.00780,
,,,-04.044000000000,   0.00840,
,,,-04.040000000000,   0.00840,
,,,-04.036000000000,   0.00800,
,,,-04.032000000000,   0.00760,
,,,-04.028000000000,   0.00820,
,,,-04.024000000000,   0.00760,
,,,-04.020000000000,   0.00820,
,,,-04.016000000000,   0.00820,
,,,-04.012000000000,   0.00780,
,,,-04.008000000000,   0.00800,
,,,-04.004000000000,   0.00820,
,,,-04.000000000000,   0.00840,
,,,-03.996000000000,   0.00780,
,,,-03.992000000000,   0.00780,
,,,-03.988000000000,   0.00800,
,,,-03.984000000000,   0.00840,
,,,-03.980000000000,   0.00780,
,,,-03.976000000000,   0.00780,
,,,-03.972000000000,   0.00800,
,,,-03.968000000000,   0.00820,
,,,-03.964000000000,   0.00800,
,,,-03.960000000000,   0.00800,
,,,-03.956000000000,   0.00800,
,,,-03.952000000000,   0.00820,
,,,-03.948000000000,   0.00780,
,,,-03.944000000000,   0.00800,
,,,-03.940000000000,   0.00820,
,,,-03.936000000000,   0.00800,
,,,-03.932000000000,   0.00780,
,,,-03.928000000000,   0.00780,
,,,-03.924000000000,   0.00800,
,,,-03.920000000000,   0.00820,
,,,-03.916000000000,   0.00780,
,,,-03.912000000000,   0.00780,
,,,-03.908000000000,   0.00800,
,,,-03.904000000000,   0.00780,
,,,-03.900000000000,   0.00780,
,,,-03.896000000000,   0.00800,
,,,-03.892000000000,   0.00740,
,,,-03.888000000000,   0.00780,
,,,-03.884000000000,   0.00760,
,,,-03.880000000000,   0.00760,
,,,-03.876000000000,   0.00780,
,,,-03.872000000000,   0.00780,
,,,-03.868000000000,   0.00800,
,,,-03.864000000000,   0.00760,
,,,-03.860000000000,   0.00820,
,,,-03.856000000000,   0.00780,
,,,-03.852000000000,   0.00800,
,,,-03.848000000000,   0.00780,
,,,-03.844000000000,   0.00820,
,,,-03.840000000000,   0.00800,
,,,-03.836000000000,   0.00800,
,,,-03.832000000000,   0.00800,
,,,-03.828000000000,   0.00780,
,,,-03.824000000000,   0.00780,
,,,-03.820000000000,   0.00800,
,,,-03.816000000000,   0.00760,
,,,-03.812000000000,   0.00760,
,,,-03.808000000000,   0.00780,
,,,-03.804000000000,   0.00800,
,,,-03.800000000000,   0.00760,
,,,-03.796000000000,   0.00780,
,,,-03.792000000000,   0.00800,
,,,-03.788000000000,   0.00800,
,,,-03.784000000000,   0.00780,
,,,-03.780000000000,   0.00780,
,,,-03.776000000000,   0.00780,
,,,-03.772000000000,   0.00760,
,,,-03.768000000000,   0.00780,
,,,-03.764000000000,   0.00760,
,,,-03.760000000000,   0.00820,
,,,-03.756000000000,   0.00780,
,,,-03.752000000000,   0.00800,
,,,-03.748000000000,   0.00780,
,,,-03.744000000000,   0.00800,
,,,-03.740000000000,   0.00780,
,,,-03.736000000000,   0.00800,
,,,-03.732000000000,   0.00800,
,,,-03.728000000000,   0.00760,
,,,-03.724000000000,   0.00780,
,,,-03.720000000000,   0.00820,
,,,-03.716000000000,   0.00800,
,,,-03.712000000000,   0.00780,
,,,-03.708000000000,   0.00780,
,,,-03.704000000000,   0.00800,
,,,-03.700000000000,   0.00780,
,,,-03.696000000000,   0.00780,
,,,-03.692000000000,   0.00780,
,,,-03.688000000000,   0.00740,
,,,-03.684000000000,   0.00800,
,,,-03.680000000000,   0.00780,
,,,-03.676000000000,   0.00800,
,,,-03.672000000000,   0.00780,
,,,-03.668000000000,   0.00780,
,,,-03.664000000000,   0.00780,
,,,-03.660000000000,   0.00820,
,,,-03.656000000000,   0.00780,
,,,-03.652000000000,   0.00800,
,,,-03.648000000000,   0.00740,
,,,-03.644000000000,   0.00780,
,,,-03.640000000000,   0.00760,
,,,-03.636000000000,   0.00760,
,,,-03.632000000000,   0.00760,
,,,-03.628000000000,   0.00760,
,,,-03.624000000000,   0.00760,
,,,-03.620000000000,   0.00800,
,,,-03.616000000000,   0.00780,
,,,-03.612000000000,   0.00740,
,,,-03.608000000000,   0.00760,
,,,-03.604000000000,   0.00740,
,,,-03.600000000000,   0.00780,
,,,-03.596000000000,   0.00760,
,,,-03.592000000000,   0.00760,
,,,-03.588000000000,   0.00760,
,,,-03.584000000000,   0.00780,
,,,-03.580000000000,   0.00740,
,,,-03.576000000000,   0.00780,
,,,-03.572000000000,   0.00760,
,,,-03.568000000000,   0.00720,
,,,-03.564000000000,   0.00740,
,,,-03.560000000000,   0.00800,
,,,-03.556000000000,   0.00760,
,,,-03.552000000000,   0.00760,
,,,-03.548000000000,   0.00760,
,,,-03.544000000000,   0.00740,
,,,-03.540000000000,   0.00740,
,,,-03.536000000000,   0.00780,
,,,-03.532000000000,   0.00760,
,,,-03.528000000000,   0.00780,
,,,-03.524000000000,   0.00760,
,,,-03.520000000000,   0.00780,
,,,-03.516000000000,   0.00760,
,,,-03.512000000000,   0.00760,
,,,-03.508000000000,   0.00740,
,,,-03.504000000000,   0.00780,
,,,-03.500000000000,   0.00760,
,,,-03.496000000000,   0.00760,
,,,-03.492000000000,   0.00760,
,,,-03.488000000000,   0.00720,
,,,-03.484000000000,   0.00780,
,,,-03.480000000000,   0.00760,
,,,-03.476000000000,   0.00720,
,,,-03.472000000000,   0.00700,
,,,-03.468000000000,   0.00700,
,,,-03.464000000000,   0.00760,
,,,-03.460000000000,   0.00800,
,,,-03.456000000000,   0.00740,
,,,-03.452000000000,   0.00780,
,,,-03.448000000000,   0.00740,
,,,-03.444000000000,   0.00780,
,,,-03.440000000000,   0.00760,
,,,-03.436000000000,   0.00760,
,,,-03.432000000000,   0.00740,
,,,-03.428000000000,   0.00740,
,,,-03.424000000000,   0.00760,
,,,-03.420000000000,   0.00760,
,,,-03.416000000000,   0.00720,
,,,-03.412000000000,   0.00740,
,,,-03.408000000000,   0.00720,
,,,-03.404000000000,   0.00760,
,,,-03.400000000000,   0.00760,
,,,-03.396000000000,   0.00740,
,,,-03.392000000000,   0.00740,
,,,-03.388000000000,   0.00740,
,,,-03.384000000000,   0.00720,
,,,-03.380000000000,   0.00800,
,,,-03.376000000000,   0.00740,
,,,-03.372000000000,   0.00740,
,,,-03.368000000000,   0.00760,
,,,-03.364000000000,   0.00760,
,,,-03.360000000000,   0.00740,
,,,-03.356000000000,   0.00740,
,,,-03.352000000000,   0.00680,
,,,-03.348000000000,   0.00760,
,,,-03.344000000000,   0.00760,
,,,-03.340000000000,   0.00740,
,,,-03.336000000000,   0.00720,
,,,-03.332000000000,   0.00720,
,,,-03.328000000000,   0.00700,
,,,-03.324000000000,   0.00740,
,,,-03.320000000000,   0.00740,
,,,-03.316000000000,   0.00740,
,,,-03.312000000000,   0.00740,
,,,-03.308000000000,   0.00720,
,,,-03.304000000000,   0.00740,
,,,-03.300000000000,   0.00740,
,,,-03.296000000000,   0.00740,
,,,-03.292000000000,   0.00740,
,,,-03.288000000000,   0.00720,
,,,-03.284000000000,   0.00760,
,,,-03.280000000000,   0.00740,
,,,-03.276000000000,   0.00760,
,,,-03.272000000000,   0.00740,
,,,-03.268000000000,   0.00700,
,,,-03.264000000000,   0.00740,
,,,-03.260000000000,   0.00780,
,,,-03.256000000000,   0.00740,
,,,-03.252000000000,   0.00740,
,,,-03.248000000000,   0.00720,
,,,-03.244000000000,   0.00760,
,,,-03.240000000000,   0.00760,
,,,-03.236000000000,   0.00700,
,,,-03.232000000000,   0.00700,
,,,-03.228000000000,   0.00720,
,,,-03.224000000000,   0.00720,
,,,-03.220000000000,   0.00740,
,,,-03.216000000000,   0.00760,
,,,-03.212000000000,   0.00720,
,,,-03.208000000000,   0.00700,
,,,-03.204000000000,   0.00740,
,,,-03.200000000000,   0.00720,
,,,-03.196000000000,   0.00720,
,,,-03.192000000000,   0.00680,
,,,-03.188000000000,   0.00720,
,,,-03.184000000000,   0.00720,
,,,-03.180000000000,   0.00740,
,,,-03.176000000000,   0.00700,
,,,-03.172000000000,   0.00720,
,,,-03.168000000000,   0.00720,
,,,-03.164000000000,   0.00720,
,,,-03.160000000000,   0.00740,
,,,-03.156000000000,   0.00700,
,,,-03.152000000000,   0.00700,
,,,-03.148000000000,   0.00700,
,,,-03.144000000000,   0.00720,
,,,-03.140000000000,   0.00700,
,,,-03.136000000000,   0.00720,
,,,-03.132000000000,   0.00680,
,,,-03.128000000000,   0.00720,
,,,-03.124000000000,   0.00760,
,,,-03.120000000000,   0.00740,
,,,-03.116000000000,   0.00760,
,,,-03.112000000000,   0.00700,
,,,-03.108000000000,   0.00700,
,,,-03.104000000000,   0.00740,
,,,-03.100000000000,   0.00680,
,,,-03.096000000000,   0.00700,
,,,-03.092000000000,   0.00700,
,,,-03.088000000000,   0.00680,
,,,-03.084000000000,   0.00740,
,,,-03.080000000000,   0.00700,
,,,-03.076000000000,   0.00700,
,,,-03.072000000000,   0.00680,
,,,-03.068000000000,   0.00740,
,,,-03.064000000000,   0.00760,
,,,-03.060000000000,   0.00700,
,,,-03.056000000000,   0.00700,
,,,-03.052000000000,   0.00680,
,,,-03.048000000000,   0.00680,
,,,-03.044000000000,   0.00720,
,,,-03.040000000000,   0.00700,
,,,-03.036000000000,   0.00660,
,,,-03.032000000000,   0.00700,
,,,-03.028000000000,   0.00660,
,,,-03.024000000000,   0.00680,
,,,-03.020000000000,   0.00700,
,,,-03.016000000000,   0.00700,
,,,-03.012000000000,   0.00660,
,,,-03.008000000000,   0.00700,
,,,-03.004000000000,   0.00680,
,,,-03.000000000000,   0.00700,
,,,-02.996000000000,   0.00680,
,,,-02.992000000000,   0.00680,
,,,-02.988000000000,   0.00640,
,,,-02.984000000000,   0.00700,
,,,-02.980000000000,   0.00660,
,,,-02.976000000000,   0.00680,
,,,-02.972000000000,   0.00660,
,,,-02.968000000000,   0.00700,
,,,-02.964000000000,   0.00700,
,,,-02.960000000000,   0.00680,
,,,-02.956000000000,   0.00700,
,,,-02.952000000000,   0.00640,
,,,-02.948000000000,   0.00680,
,,,-02.944000000000,   0.00680,
,,,-02.940000000000,   0.00620,
,,,-02.936000000000,   0.00680,
,,,-02.932000000000,   0.00660,
,,,-02.928000000000,   0.00660,
,,,-02.924000000000,   0.00700,
,,,-02.920000000000,   0.00640,
,,,-02.916000000000,   0.00680,
,,,-02.912000000000,   0.00640,
,,,-02.908000000000,   0.00680,
,,,-02.904000000000,   0.00680,
,,,-02.900000000000,   0.00620,
,,,-02.896000000000,   0.00600,
,,,-02.892000000000,   0.00640,
,,,-02.888000000000,   0.00680,
,,,-02.884000000000,   0.00620,
,,,-02.880000000000,   0.00620,
,,,-02.876000000000,   0.00640,
,,,-02.872000000000,   0.00620,
,,,-02.868000000000,   0.00620,
,,,-02.864000000000,   0.00640,
,,,-02.860000000000,   0.00660,
,,,-02.856000000000,   0.00660,
,,,-02.852000000000,   0.00600,
,,,-02.848000000000,   0.00620,
,,,-02.844000000000,   0.00620,
,,,-02.840000000000,   0.00620,
,,,-02.836000000000,   0.00600,
,,,-02.832000000000,   0.00640,
,,,-02.828000000000,   0.00560,
,,,-02.824000000000,   0.00580,
,,,-02.820000000000,   0.00640,
,,,-02.816000000000,   0.00600,
,,,-02.812000000000,   0.00580,
,,,-02.808000000000,   0.00600,
,,,-02.804000000000,   0.00600,
,,,-02.800000000000,   0.00640,
,,,-02.796000000000,   0.00580,
,,,-02.792000000000,   0.00580,
,,,-02.788000000000,   0.00560,
,,,-02.784000000000,   0.00580,
,,,-02.780000000000,   0.00600,
,,,-02.776000000000,   0.00580,
,,,-02.772000000000,   0.00580,
,,,-02.768000000000,   0.00540,
,,,-02.764000000000,   0.00580,
,,,-02.760000000000,   0.00560,
,,,-02.756000000000,   0.00540,
,,,-02.752000000000,   0.00520,
,,,-02.748000000000,   0.00560,
,,,-02.744000000000,   0.00500,
,,,-02.740000000000,   0.00500,
,,,-02.736000000000,   0.00520,
,,,-02.732000000000,   0.00520,
,,,-02.728000000000,   0.00520,
,,,-02.724000000000,   0.00520,
,,,-02.720000000000,   0.00480,
,,,-02.716000000000,   0.00520,
,,,-02.712000000000,   0.00460,
,,,-02.708000000000,   0.00440,
,,,-02.704000000000,   0.00460,
,,,-02.700000000000,   0.00460,
,,,-02.696000000000,   0.00500,
,,,-02.692000000000,   0.00460,
,,,-02.688000000000,   0.00460,
,,,-02.684000000000,   0.00440,
,,,-02.680000000000,   0.00460,
,,,-02.676000000000,   0.00460,
,,,-02.672000000000,   0.00480,
,,,-02.668000000000,   0.00500,
,,,-02.664000000000,   0.00460,
,,,-02.660000000000,   0.00420,
,,,-02.656000000000,   0.00480,
,,,-02.652000000000,   0.00480,
,,,-02.648000000000,   0.00480,
,,,-02.644000000000,   0.00520,
,,,-02.640000000000,   0.00520,
,,,-02.636000000000,   0.00480,
,,,-02.632000000000,   0.00520,
,,,-02.628000000000,   0.00520,
,,,-02.624000000000,   0.00540,
,,,-02.620000000000,   0.00540,
,,,-02.616000000000,   0.00520,
,,,-02.612000000000,   0.00480,
,,,-02.608000000000,   0.00520,
,,,-02.604000000000,   0.00540,
,,,-02.600000000000,   0.00560,
,,,-02.596000000000,   0.00540,
,,,-02.592000000000,   0.00540,
,,,-02.588000000000,   0.00560,
,,,-02.584000000000,   0.00580,
,,,-02.580000000000,   0.00580,
,,,-02.576000000000,   0.00620,
,,,-02.572000000000,   0.00600,
,,,-02.568000000000,   0.00600,
,,,-02.564000000000,   0.00600,
,,,-02.560000000000,   0.00600,
,,,-02.556000000000,   0.00640,
,,,-02.552000000000,   0.00620,
