data/TEK0010.CSV

Record Length,2.500000e+03,,  -0.026000000000,   0.28300,
Sample Interval,1.000000e-04,,  -0.025900000000,   0.28280,
Trigger Point,2.600000000000e+02,,  -0.025800000000,   0.28240,
,,,  -0.025700000000,   0.28200,
,,,  -0.025600000000,   0.28280,
,,,  -0.025500000000,   0.28180,
Source,CH1,,  -0.025400000000,   0.28300,
Vertical Units,V,,  -0.025300000000,   0.28320,
Vertical Scale,5.000000e-03,,  -0.025200000000,   0.28240,
Vertical Offset,-2.714000e-01,,  -0.025100000000,   0.28240,
Horizontal Units,s,,  -0.025000000000,   0.28340,
Horizontal Scale,2.500000e-02,,  -0.024900000000,   0.28180,
Pt Fmt,Y,,  -0.024800000000,   0.28300,
Yzero,0.000000e+00,,  -0.024700000000,   0.28260,
Probe Atten,1.000000e+00,,  -0.024600000000,   0.28240,
Model Number,TDS1001B,,  -0.024500000000,   0.28280,
Serial Number,C102706,,  -0.024400000000,   0.28300,
Firmware Version,FV:v22.11,,  -0.024300000000,   0.28200,
,,,-00.024200000000,   0.28300,
,,,-00.024100000000,   0.28180,
,,,-00.024000000000,   0.28300,
,,,-00.023900000000,   0.28320,
,,,-00.023800000000,   0.28280,
,,,-00.023700000000,   0.28200,
,,,-00.023600000000,   0.28180,
,,,-00.023500000000,   0.28260,
,,,-00.023400000000,   0.28300,
,,,-00.023300000000,   0.28280,
,,,-00.023200000000,   0.28260,
,,,-00.023100000000,   0.28240,
,,,-00.023000000000,   0.28200,
,,,-00.022900000000,   0.28220,
,,,-00.022800000000,   0.28260,
,,,-00.022700000000,   0.28220,
,,,-00.022600000000,   0.28240,
,,,-00.022500000000,   0.28220,
,,,-00.022400000000,   0.28260,
,,,-00.022300000000,   0.28300,
,,,-00.022200000000,   0.28300,
,,,-00.022100000000,   0.28200,
,,,-00.022000000000,   0.28240,
,,,-00.021900000000,   0.28280,
,,,-00.021800000000,   0.28240,
,,,-00.021700000000,   0.28360,
,,,-00.021600000000,   0.28280,
,,,-00.021500000000,   0.28320,
,,,-00.021400000000,   0.28280,
,,,-00.021300000000,   0.28280,
,,,-00.021200000000,   0.28180,
,,,-00.021100000000,   0.28280,
,,,-00.021000000000,   0.28260,
,,,-00.020900000000,   0.28240,
,,,-00.020800000000,   0.28320,
,,,-00.020700000000,   0.28320,
,,,-00.020600000000,   0.28360,
,,,-00.020500000000,   0.28260,
,,,-00.020400000000,   0.28220,
,,,-00.020300000000,   0.28200,
,,,-00.020200000000,   0.28260,
,,,-00.020100000000,   0.28240,
,,,-00.020000000000,   0.28280,
,,,-00.019900000000,   0.28280,
,,,-00.019800000000,   0.28300,
,,,-00.019700000000,   0.28300,
,,,-00.019600000000,   0.28260,
,,,-00.019500000000,   0.28260,
,,,-00.019400000000,   0.28220,
,,,-00.019300000000,   0.28200,
,,,-00.019200000000,   0.28260,
,,,-00.019100000000,   0.28220,
,,,-00.019000000000,   0.28200,
,,,-00.018900000000,   0.28300,
,,,-00.018800000000,   0.28200,
,,,-00.018700000000,   0.28280,
,,,-00.018600000000,   0.28260,
,,,-00.018500000000,   0.28320,
,,,-00.018400000000,   0.28220,
,,,-00.018300000000,   0.28260,
,,,-00.018200000000,   0.28240,
,,,-00.018100000000,   0.28340,
,,,-00.018000000000,   0.28280,
,,,-00.017900000000,   0.28240,
,,,-00.017800000000,   0.28280,
,,,-00.017700000000,   0.28260,
,,,-00.017600000000,   0.28260,
,,,-00.017500000000,   0.28260,
,,,-00.017400000000,   0.28240,
,,,-00.017300000000,   0.28180,
,,,-00.017200000000,   0.28240,
,,,-00.017100000000,   0.28200,
,,,-00.017000000000,   0.28320,
,,,-00.016900000000,   0.28280,
,,,-00.016800000000,   0.28260,
,,,-00.016700000000,   0.28240,
,,,-00.016600000000,   0.28160,
,,,-00.016500000000,   0.28180,
,,,-00.016400000000,   0.28240,
,,,-00.016300000000,   0.28240,
,,,-00.016200000000,   0.28240,
,,,-00.016100000000,   0.28240,
,,,-00.016000000000,   0.28300,
,,,-00.015900000000,   0.28180,
,,,-00.015800000000,   0.28280,
,,,-00.015700000000,   0.28300,
,,,-00.015600000000,   0.28260,
,,,-00.015500000000,   0.28320,
,,,-00.015400000000,   0.28240,
,,,-00.015300000000,   0.28300,
,,,-00.015200000000,   0.28280,
,,,-00.015100000000,   0.28200,
,,,-00.015000000000,   0.28240,
,,,-00.014900000000,   0.28300,
,,,-00.014800000000,   0.28320,
,,,-00.014700000000,   0.28280,
,,,-00.014600000000,   0.28300,
,,,-00.014500000000,   0.28340,
,,,-00.014400000000,   0.28280,
,,,-00.014300000000,   0.28240,
,,,-00.014200000000,   0.28300,
,,,-00.014100000000,   0.28300,
,,,-00.014000000000,   0.28260,
,,,-00.013900000000,   0.28360,
,,,-00.013800000000,   0.28260,
,,,-00.013700000000,   0.28260,
,,,-00.013600000000,   0.28300,
,,,-00.013500000000,   0.28220,
,,,-00.013400000000,   0.28220,
,,,-00.013300000000,   0.28240,
,,,-00.013200000000,   0.28260,
,,,-00.013100000000,   0.28160,
,,,-00.013000000000,   0.28300,
,,,-00.012900000000,   0.28260,
,,,-00.012800000000,   0.28240,
,,,-00.012700000000,   0.28280,
,,,-00.012600000000,   0.28240,
,,,-00.012500000000,   0.28240,
,,,-00.012400000000,   0.28320,
,,,-00.012300000000,   0.28220,
,,,-00.012200000000,   0.28300,
,,,-00.012100000000,   0.28340,
,,,-00.012000000000,   0.28380,
,,,-00.011900000000,   0.28240,
,,,-00.011800000000,   0.28360,
,,,-00.011700000000,   0.28200,
,,,-00.011600000000,   0.28260,
,,,-00.011500000000,   0.28260,
,,,-00.011400000000,   0.28320,
,,,-00.011300000000,   0.28280,
,,,-00.011200000000,   0.28280,
,,,-00.011100000000,   0.28300,
,,,-00.011000000000,   0.28240,
,,,-00.010900000000,   0.28240,
,,,-00.010800000000,   0.28280,
,,,-00.010700000000,   0.28280,
,,,-00.010600000000,   0.28300,
,,,-00.010500000000,   0.28320,
,,,-00.010400000000,   0.28260,
,,,-00.010300000000,   0.28240,
,,,-00.010200000000,   0.28260,
,,,-00.010100000000,   0.28260,
,,,-00.010000000000,   0.28280,
,,,-00.009900000000,   0.28240,
,,,-00.009800000000,   0.28260,
,,,-00.009700000000,   0.28180,
,,,-00.009600000000,   0.28380,
,,,-00.009500000000,   0.28300,
,,,-00.009400000000,   0.28240,
,,,-00.009300000000,   0.28260,
,,,-00.009200000000,   0.28240,
,,,-00.009100000000,   0.28200,
,,,-00.009000000000,   0.28260,
,,,-00.008900000000,   0.28240,
,,,-00.008800000000,   0.28320,
,,,-00.008700000000,   0.28240,
,,,-00.008600000000,   0.28280,
,,,-00.008500000000,   0.28200,
,,,-00.008400000000,   0.28220,
,,,-00.008300000000,   0.28240,
,,,-00.008200000000,   0.28240,
,,,-00.008100000000,   0.28260,
,,,-00.008000000000,   0.28300,
,,,-00.007900000000,   0.28180,
,,,-00.007800000000,   0.28320,
,,,-00.007700000000,   0.28240,
,,,-00.007600000000,   0.28260,
,,,-00.007500000000,   0.28260,
,,,-00.007400000000,   0.28260,
,,,-00.007300000000,   0.28320,
,,,-00.007200000000,   0.28180,
,,,-00.007100000000,   0.28360,
,,,-00.007000000000,   0.28260,
,,,-00.006900000000,   0.28280,
,,,-00.006800000000,   0.28320,
,,,-00.006700000000,   0.28300,
,,,-00.006600000000,   0.28240,
,,,-00.006500000000,   0.28200,
,,,-00.006400000000,   0.28320,
,,,-00.006300000000,   0.28340,
,,,-00.006200000000,   0.28380,
,,,-00.006100000000,   0.28240,
,,,-00.006000000000,   0.28220,
,,,-00.005900000000,   0.28200,
,,,-00.005800000000,   0.28200,
,,,-00.005700000000,   0.28180,
,,,-00.005600000000,   0.28280,
,,,-00.005500000000,   0.28200,
,,,-00.005400000000,   0.28200,
,,,-00.005300000000,   0.28260,
,,,-00.005200000000,   0.28160,
,,,-00.005100000000,   0.28300,
,,,-00.005000000000,   0.28280,
,,,-00.004900000000,   0.28280,
,,,-00.004800000000,   0.28360,
,,,-00.004700000000,   0.28260,
,,,-00.004600000000,   0.28280,
,,,-00.004500000000,   0.28260,
,,,-00.004400000000,   0.28240,
,,,-00.004300000000,   0.28260,
,,,-00.004200000000,   0.28260,
,,,-00.004100000000,   0.28220,
,,,-00.004000000000,   0.28280,
,,,-00.003900000000,   0.28300,
,,,-00.003800000000,   0.28300,
,,,-00.003700000000,   0.28240,
,,,-00.003600000000,   0.28320,
,,,-00.003500000000,   0.28320,
,,,-00.003400000000,   0.28220,
,,,-00.003300000000,   0.28340,
,,,-00.003200000000,   0.28240,
,,,-00.003100000000,   0.28280,
,,,-00.003000000000,   0.28220,
,,,-00.002900000000,   0.28280,
,,,-00.002800000000,   0.28300,
,,,-00.002700000000,   0.28360,
,,,-00.002600000000,   0.28300,
,,,-00.002500000000,   0.28300,
,,,-00.002400000000,   0.28300,
,,,-00.002300000000,   0.28260,
,,,-00.002200000000,   0.28320,
,,,-00.002100000000,   0.28300,
,,,-00.002000000000,   0.28300,
,,,-00.001900000000,   0.28320,
,,,-00.001800000000,   0.28240,
,,,-00.001700000000,   0.28220,
,,,-00.001600000000,   0.28260,
,,,-00.001500000000,   0.28280,
,,,-00.001400000000,   0.28180,
,,,-00.001300000000,   0.28240,
,,,-00.001200000000,   0.28300,
,,,-00.001100000000,   0.28280,
,,,-00.001000000000,   0.28240,
,,,-00.000900000000,   0.28160,
,,,-00.000800000000,   0.28300,
,,,-00.000700000000,   0.28240,
,,,-00.000600000000,   0.28320,
,,,-00.000500000000,   0.28160,
,,,-00.000400000000,   0.28220,
,,,-00.000300000000,   0.28320,
,,,-00.000200000000,   0.28200,
,,,-00.000100000000,   0.28160,
,,,-00.000000000000,   0.28280,
,,,00.000100000000,   0.28220,
,,,00.000200000000,   0.28240,
,,,00.000300000000,   0.28320,
,,,00.000400000000,   0.28240,
,,,00.000500000000,   0.28360,
,,,00.000600000000,   0.28240,
,,,00.000700000000,   0.28260,
,,,00.000800000000,   0.28280,
,,,00.000900000000,   0.28140,
,,,00.001000000000,   0.28140,
,,,00.001100000000,   0.28260,
,,,00.001200000000,   0.28280,
,,,00.001300000000,   0.28140,
,,,00.001400000000,   0.28140,
,,,00.001500000000,   0.28220,
,,,00.001600000000,   0.28300,
,,,00.001700000000,   0.28120,
,,,00.001800000000,   0.28240,
,,,00.001900000000,   0.28280,
,,,00.002000000000,   0.28180,
,,,00.002100000000,   0.28200,
,,,00.002200000000,   0.28200,
,,,00.002300000000,   0.28240,
,,,00.002400000000,   0.28180,
,,,00.002500000000,   0.28240,
,,,00.002600000000,   0.28180,
,,,00.002700000000,   0.28180,
,,,00.002800000000,   0.28200,
,,,00.002900000000,   0.28180,
,,,00.003000000000,   0.28220,
,,,00.003100000000,   0.28200,
,,,00.003200000000,   0.28240,
,,,00.003300000000,   0.28140,
,,,00.003400000000,   0.28200,
,,,00.003500000000,   0.28260,
,,,00.003600000000,   0.28240,
,,,00.003700000000,   0.28220,
,,,00.003800000000,   0.28240,
,,,00.003900000000,   0.28260,
,,,00.004000000000,   0.28180,
,,,00.004100000000,   0.28260,
,,,00.004200000000,   0.28140,
,,,00.004300000000,   0.28080,
,,,00.004400000000,   0.28120,
,,,00.004500000000,   0.28060,
,,,00.004600000000,   0.28100,
,,,00.004700000000,   0.28100,
,,,00.004800000000,   0.28060,
,,,00.004900000000,   0.27980,
,,,00.005000000000,   0.27960,
,,,00.005100000000,   0.28000,
,,,00.005200000000,   0.27980,
,,,00.005300000000,   0.28040,
,,,00.005400000000,   0.27980,
,,,00.005500000000,   0.27900,
,,,00.005600000000,   0.27820,
,,,00.005700000000,   0.27960,
,,,00.005800000000,   0.27820,
,,,00.005900000000,   0.27880,
,,,00.006000000000,   0.27820,
,,,00.006100000000,   0.27760,
,,,00.006200000000,   0.27840,
,,,00.006300000000,   0.27740,
,,,00.006400000000,   0.27800,
,,,00.006500000000,   0.27760,
,,,00.006600000000,   0.27640,
,,,00.006700000000,   0.27660,
,,,00.006800000000,   0.27620,
,,,00.006900000000,   0.27500,
,,,00.007000000000,   0.27460,
,,,00.007100000000,   0.27460,
,,,00.007200000000,   0.27480,
,,,00.007300000000,   0.27480,
,,,00.007400000000,   0.27300,
,,,00.007500000000,   0.27400,
,,,00.007600000000,   0.27260,
,,,00.007700000000,   0.27140,
,,,00.007800000000,   0.27260,
,,,00.007900000000,   0.27040,
,,,00.008000000000,   0.27000,
,,,00.008100000000,   0.27000,
,,,00.008200000000,   0.26960,
,,,00.008300000000,   0.26900,
,,,00.008400000000,   0.26960,
,,,00.008500000000,   0.26820,
,,,00.008600000000,   0.26820,
,,,00.008700000000,   0.26640,
,,,00.008800000000,   0.26700,
,,,00.008900000000,   0.26660,
,,,00.009000000000,   0.26560,
,,,00.009100000000,   0.26540,
,,,00.009200000000,   0.26500,
,,,00.009300000000,   0.26460,
,,,00.009400000000,   0.26360,
,,,00.009500000000,   0.26400,
,,,00.009600000000,   0.26340,
,,,00.009700000000,   0.26320,
,,,00.009800000000,   0.26300,
,,,00.009900000000,   0.26240,
,,,00.010000000000,   0.26200,
,,,00.010100000000,   0.26140,
,,,00.010200000000,   0.26180,
,,,00.010300000000,   0.26160,
,,,00.010400000000,   0.26200,
,,,00.010500000000,   0.26240,
,,,00.010600000000,   0.26140,
,,,00.010700000000,   0.26080,
,,,00.010800000000,   0.26080,
,,,00.010900000000,   0.26060,
,,,00.011000000000,   0.26020,
,,,00.011100000000,   0.26100,
,,,00.011200000000,   0.26020,
,,,00.011300000000,   0.26040,
,,,00.011400000000,   0.26060,
,,,00.011500000000,   0.26020,
,,,00.011600000000,   0.25980,
,,,00.011700000000,   0.25860,
,,,00.011800000000,   0.25940,
,,,00.011900000000,   0.25980,
,,,00.012000000000,   0.25920,
,,,00.012100000000,   0.25940,
,,,00.012200000000,   0.25900,
,,,00.012300000000,   0.26040,
,,,00.012400000000,   0.26040,
,,,00.012500000000,   0.25980,
,,,00.012600000000,   0.26000,
,,,00.012700000000,   0.25980,
,,,00.012800000000,   0.25960,
,,,00.012900000000,   0.26040,
,,,00.013000000000,   0.26000,
,,,00.013100000000,   0.26060,
,,,00.013200000000,   0.26000,
,,,00.013300000000,   0.26020,
,,,00.013400000000,   0.26080,
,,,00.013500000000,   0.26140,
,,,00.013600000000,   0.26060,
,,,00.013700000000,   0.26040,
,,,00.013800000000,   0.26060,
,,,00.013900000000,   0.26120,
,,,00.014000000000,   0.26160,
,,,00.014100000000,   0.26120,
,,,00.014200000000,   0.26080,
,,,00.014300000000,   0.26080,
,,,00.014400000000,   0.26100,
,,,00.014500000000,   0.26140,
,,,00.014600000000,   0.26180,
,,,00.014700000000,   0.26080,
,,,00.014800000000,   0.26120,
,,,00.014900000000,   0.26180,
,,,00.015000000000,   0.26220,
,,,00.015100000000,   0.26240,
,,,00.015200000000,   0.26240,
,,,00.015300000000,   0.26200,
,,,00.015400000000,   0.26380,
,,,00.015500000000,   0.26320,
,,,00.015600000000,   0.26240,
,,,00.015700000000,   0.26320,
,,,00.015800000000,   0.26300,
,,,00.015900000000,   0.26260,
,,,00.016000000000,   0.26380,
,,,00.016100000000,   0.26340,
,,,00.016200000000,   0.26360,
,,,00.016300000000,   0.26480,
,,,00.016400000000,   0.26320,
,,,00.016500000000,   0.26280,
,,,00.016600000000,   0.26460,
,,,00.016700000000,   0.26460,
,,,00.016800000000,   0.26380,
,,,00.016900000000,   0.26460,
,,,00.017000000000,   0.26520,
,,,00.017100000000,   0.26440,
,,,00.017200000000,   0.26380,
,,,00.017300000000,   0.26400,
,,,00.017400000000,   0.26500,
,,,00.017500000000,   0.26540,
,,,00.017600000000,   0.26520,
,,,00.017700000000,   0.26580,
,,,00.017800000000,   0.26460,
,,,00.017900000000,   0.26460,
,,,00.018000000000,   0.26540,
,,,00.018100000000,   0.26520,
,,,00.018200000000,   0.26600,
,,,00.018300000000,   0.26580,
,,,00.018400000000,   0.26520,
,,,00.018500000000,   0.26480,
,,,00.018600000000,   0.26580,
,,,00.018700000000,   0.26560,
,,,00.018800000000,   0.26580,
,,,00.018900000000,   0.26600,
,,,00.019000000000,   0.26620,
,,,00.019100000000,   0.26700,
,,,00.019200000000,   0.26720,
,,,00.019300000000,   0.26660,
,,,00.019400000000,   0.26640,
,,,00.019500000000,   0.26700,
,,,00.019600000000,   0.26640,
,,,00.019700000000,   0.26640,
,,,00.019800000000,   0.26660,
,,,00.019900000000,   0.26680,
,,,00.020000000000,   0.26680,
,,,00.020100000000,   0.26760,
,,,00.020200000000,   0.26720,
,,,00.020300000000,   0.26660,
,,,00.020400000000,   0.26760,
,,,00.020500000000,   0.26660,
,,,00.020600000000,   0.26720,
,,,00.020700000000,   0.26720,
,,,00.020800000000,   0.26780,
,,,00.020900000000,   0.26740,
,,,00.021000000000,   0.26740,
,,,00.021100000000,   0.26700,
,,,00.021200000000,   0.26680,
,,,00.021300000000,   0.26840,
,,,00.021400000000,   0.26700,
,,,00.021500000000,   0.26820,
,,,00.021600000000,   0.26740,
,,,00.021700000000,   0.26760,
,,,00.021800000000,   0.26720,
,,,00.021900000000,   0.26720,
,,,00.022000000000,   0.26700,
,,,00.022100000000,   0.26740,
,,,00.022200000000,   0.26820,
,,,00.022300000000,   0.26780,
,,,00.022400000000,   0.26820,
,,,00.022500000000,   0.26820,
,,,00.022600000000,   0.26780,
,,,00.022700000000,   0.26840,
,,,00.022800000000,   0.26820,
,,,00.022900000000,   0.26900,
,,,00.023000000000,   0.26860,
,,,00.023100000000,   0.26720,
,,,00.023200000000,   0.26740,
,,,00.023300000000,   0.26860,
,,,00.023400000000,   0.26940,
,,,00.023500000000,   0.26820,
,,,00.023600000000,   0.26880,
,,,00.023700000000,   0.26880,
,,,00.023800000000,   0.26900,
,,,00.023900000000,   0.26900,
,,,00.024000000000,   0.26940,
,,,00.024100000000,   0.26840,
,,,00.024200000000,   0.26860,
,,,00.024300000000,   0.26940,
,,,00.024400000000,   0.26900,
,,,00.024500000000,   0.26840,
,,,00.024600000000,   0.26940,
,,,00.024700000000,   0.26900,
,,,00.024800000000,   0.26880,
,,,00.024900000000,   0.26960,
,,,00.025000000000,   0.26880,
,,,00.025100000000,   0.27020,
,,,00.025200000000,   0.26920,
,,,00.025300000000,   0.27020,
,,,00.025400000000,   0.27000,
,,,00.025500000000,   0.26940,
,,,00.025600000000,   0.26920,
,,,00.025700000000,   0.26980,
,,,00.025800000000,   0.27020,
,,,00.025900000000,   0.26980,
,,,00.026000000000,   0.26980,
,,,00.026100000000,   0.27080,
,,,00.026200000000,   0.27000,
,,,00.026300000000,   0.26920,
,,,00.026400000000,   0.26940,
,,,00.026500000000,   0.27020,
,,,00.026600000000,   0.27020,
,,,00.026700000000,   0.26980,
,,,00.026800000000,   0.27000,
,,,00.026900000000,   0.27080,
,,,00.027000000000,   0.27020,
,,,00.027100000000,   0.27020,
,,,00.027200000000,   0.27060,
,,,00.027300000000,   0.27020,
,,,00.027400000000,   0.27000,
,,,00.027500000000,   0.27040,
,,,00.027600000000,   0.26900,
,,,00.027700000000,   0.27060,
,,,00.027800000000,   0.27040,
,,,00.027900000000,   0.27080,
,,,00.028000000000,   0.27100,
,,,00.028100000000,   0.27100,
,,,00.028200000000,   0.27060,
,,,00.028300000000,   0.27100,
,,,00.028400000000,   0.27080,
,,,00.028500000000,   0.27120,
,,,00.028600000000,   0.27180,
,,,00.028700000000,   0.27100,
,,,00.028800000000,   0.27160,
,,,00.028900000000,   0.27100,
,,,00.029000000000,   0.27080,
,,,00.029100000000,   0.27140,
,,,00.029200000000,   0.27220,
,,,00.029300000000,   0.27060,
,,,00.029400000000,   0.27100,
,,,00.029500000000,   0.27100,
,,,00.029600000000,   0.27100,
,,,00.029700000000,   0.27140,
,,,00.029800000000,   0.27160,
,,,00.029900000000,   0.27120,
,,,00.030000000000,   0.27080,
,,,00.030100000000,   0.27040,
,,,00.030200000000,   0.27160,
,,,00.030300000000,   0.27200,
,,,00.030400000000,   0.27100,
,,,00.030500000000,   0.27080,
,,,00.030600000000,   0.27140,
,,,00.030700000000,   0.27120,
,,,00.030800000000,   0.27200,
,,,00.030900000000,   0.27080,
,,,00.031000000000,   0.27120,
,,,00.031100000000,   0.27220,
,,,00.031200000000,   0.27260,
,,,00.031300000000,   0.27100,
,,,00.031400000000,   0.27140,
,,,00.031500000000,   0.27140,
,,,00.031600000000,   0.27140,
,,,00.031700000000,   0.27200,
,,,00.031800000000,   0.27200,
,,,00.031900000000,   0.27240,
,,,00.032000000000,   0.27240,
,,,00.032100000000,   0.27180,
,,,00.032200000000,   0.27180,
,,,00.032300000000,   0.27200,
,,,00.032400000000,   0.27240,
,,,00.032500000000,   0.27180,
,,,00.032600000000,   0.27240,
,,,00.032700000000,   0.27280,
,,,00.032800000000,   0.27180,
,,,00.032900000000,   0.27280,
,,,00.033000000000,   0.27200,
,,,00.033100000000,   0.27240,
,,,00.033200000000,   0.27280,
,,,00.033300000000,   0.27280,
,,,00.033400000000,   0.27240,
,,,00.033500000000,   0.27160,
,,,00.033600000000,   0.27300,
,,,00.033700000000,   0.27200,
,,,00.033800000000,   0.27300,
,,,00.033900000000,   0.27200,
,,,00.034000000000,   0.27140,
,,,00.034100000000,   0.27300,
,,,00.034200000000,   0.27300,
,,,00.034300000000,   0.27200,
,,,00.034400000000,   0.27180,
,,,00.034500000000,   0.27160,
,,,00.034600000000,   0.27180,
,,,00.034700000000,   0.27260,
,,,00.034800000000,   0.27320,
,,,00.034900000000,   0.27300,
,,,00.035000000000,   0.27320,
,,,00.035100000000,   0.27280,
,,,00.035200000000,   0.27360,
,,,00.035300000000,   0.27360,
,,,00.035400000000,   0.27220,
,,,00.035500000000,   0.27260,
,,,00.035600000000,   0.27340,
,,,00.035700000000,   0.27220,
,,,00.035800000000,   0.27340,
,,,00.035900000000,   0.27400,
,,,00.036000000000,   0.27340,
,,,00.036100000000,   0.27340,
,,,00.036200000000,   0.27280,
,,,00.036300000000,   0.27340,
,,,00.036400000000,   0.27320,
